\relax 
\@writefile{toc}{\contentsline {section}{\numberline {1}Introduction}{1}}
\newlabel{errorfun}{{1}{1}}
\@writefile{toc}{\contentsline {section}{\numberline {2}The name}{1}}
\@writefile{toc}{\contentsline {section}{\numberline {3}What have i done}{1}}
\@writefile{lof}{\contentsline {figure}{\numberline {1}{\ignorespaces Error function}}{1}}
\newlabel{errorfig}{{1}{1}}
