\relax 
\@writefile{toc}{\contentsline {section}{\numberline {1}Theoretical assignment}{1}}
\@writefile{toc}{\contentsline {section}{\numberline {2}Practical assignment}{1}}
\newlabel{squareode}{{1}{1}}
\newlabel{squareprop}{{2}{1}}
\@writefile{lof}{\contentsline {figure}{\numberline {1}{\ignorespaces On this figure we see the purple data points which symbolize my calculated values for the square root function. We also see the green graph which symbolizes the values obtained using math.h and the sqrt function that is built into it.\relax }}{2}}
\providecommand*\caption@xref[2]{\@setref\relax\@undefined{#1}}
\newlabel{sqrtfig}{{1}{2}}
